('C:\\Users\\vipqi\\OneDrive\\ドキュメント\\VSProgram\\Orbit\\build\\Orbit\\out00-PYZ.pyz',
 [('pkg_resources',
   'C:\\Python36\\lib\\site-packages\\pkg_resources\\__init__.py',
   'PYMODULE'),
  ('distutils.util', 'C:\\Python36\\lib\\distutils\\util.py', 'PYMODULE'),
  ('distutils.filelist',
   'C:\\Python36\\lib\\distutils\\filelist.py',
   'PYMODULE'),
  ('distutils.debug', 'C:\\Python36\\lib\\distutils\\debug.py', 'PYMODULE'),
  ('distutils.file_util',
   'C:\\Python36\\lib\\distutils\\file_util.py',
   'PYMODULE'),
  ('distutils.dir_util',
   'C:\\Python36\\lib\\distutils\\dir_util.py',
   'PYMODULE'),
  ('lib2to3.refactor', 'C:\\Python36\\lib\\lib2to3\\refactor.py', 'PYMODULE'),
  ('multiprocessing',
   'C:\\Python36\\lib\\multiprocessing\\__init__.py',
   'PYMODULE'),
  ('multiprocessing.spawn',
   'C:\\Python36\\lib\\multiprocessing\\spawn.py',
   'PYMODULE'),
  ('runpy', 'C:\\Python36\\lib\\runpy.py', 'PYMODULE'),
  ('multiprocessing.semaphore_tracker',
   'C:\\Python36\\lib\\multiprocessing\\semaphore_tracker.py',
   'PYMODULE'),
  ('multiprocessing.pool',
   'C:\\Python36\\lib\\multiprocessing\\pool.py',
   'PYMODULE'),
  ('multiprocessing.dummy',
   'C:\\Python36\\lib\\multiprocessing\\dummy\\__init__.py',
   'PYMODULE'),
  ('multiprocessing.dummy.connection',
   'C:\\Python36\\lib\\multiprocessing\\dummy\\connection.py',
   'PYMODULE'),
  ('multiprocessing.reduction',
   'C:\\Python36\\lib\\multiprocessing\\reduction.py',
   'PYMODULE'),
  ('multiprocessing.resource_sharer',
   'C:\\Python36\\lib\\multiprocessing\\resource_sharer.py',
   'PYMODULE'),
  ('multiprocessing.connection',
   'C:\\Python36\\lib\\multiprocessing\\connection.py',
   'PYMODULE'),
  ('xmlrpc.client', 'C:\\Python36\\lib\\xmlrpc\\client.py', 'PYMODULE'),
  ('xmlrpc', 'C:\\Python36\\lib\\xmlrpc\\__init__.py', 'PYMODULE'),
  ('decimal', 'C:\\Python36\\lib\\decimal.py', 'PYMODULE'),
  ('_pydecimal', 'C:\\Python36\\lib\\_pydecimal.py', 'PYMODULE'),
  ('numbers', 'C:\\Python36\\lib\\numbers.py', 'PYMODULE'),
  ('hmac', 'C:\\Python36\\lib\\hmac.py', 'PYMODULE'),
  ('multiprocessing.context',
   'C:\\Python36\\lib\\multiprocessing\\context.py',
   'PYMODULE'),
  ('multiprocessing.popen_spawn_win32',
   'C:\\Python36\\lib\\multiprocessing\\popen_spawn_win32.py',
   'PYMODULE'),
  ('multiprocessing.popen_forkserver',
   'C:\\Python36\\lib\\multiprocessing\\popen_forkserver.py',
   'PYMODULE'),
  ('multiprocessing.popen_spawn_posix',
   'C:\\Python36\\lib\\multiprocessing\\popen_spawn_posix.py',
   'PYMODULE'),
  ('multiprocessing.popen_fork',
   'C:\\Python36\\lib\\multiprocessing\\popen_fork.py',
   'PYMODULE'),
  ('multiprocessing.forkserver',
   'C:\\Python36\\lib\\multiprocessing\\forkserver.py',
   'PYMODULE'),
  ('multiprocessing.sharedctypes',
   'C:\\Python36\\lib\\multiprocessing\\sharedctypes.py',
   'PYMODULE'),
  ('multiprocessing.heap',
   'C:\\Python36\\lib\\multiprocessing\\heap.py',
   'PYMODULE'),
  ('ctypes', 'C:\\Python36\\lib\\ctypes\\__init__.py', 'PYMODULE'),
  ('ctypes.wintypes', 'C:\\Python36\\lib\\ctypes\\wintypes.py', 'PYMODULE'),
  ('ctypes._endian', 'C:\\Python36\\lib\\ctypes\\_endian.py', 'PYMODULE'),
  ('multiprocessing.queues',
   'C:\\Python36\\lib\\multiprocessing\\queues.py',
   'PYMODULE'),
  ('multiprocessing.synchronize',
   'C:\\Python36\\lib\\multiprocessing\\synchronize.py',
   'PYMODULE'),
  ('multiprocessing.managers',
   'C:\\Python36\\lib\\multiprocessing\\managers.py',
   'PYMODULE'),
  ('multiprocessing.util',
   'C:\\Python36\\lib\\multiprocessing\\util.py',
   'PYMODULE'),
  ('multiprocessing.process',
   'C:\\Python36\\lib\\multiprocessing\\process.py',
   'PYMODULE'),
  ('lib2to3.btm_matcher',
   'C:\\Python36\\lib\\lib2to3\\btm_matcher.py',
   'PYMODULE'),
  ('lib2to3.btm_utils', 'C:\\Python36\\lib\\lib2to3\\btm_utils.py', 'PYMODULE'),
  ('lib2to3.pgen2.grammar',
   'C:\\Python36\\lib\\lib2to3\\pgen2\\grammar.py',
   'PYMODULE'),
  ('lib2to3.pytree', 'C:\\Python36\\lib\\lib2to3\\pytree.py', 'PYMODULE'),
  ('lib2to3.pygram', 'C:\\Python36\\lib\\lib2to3\\pygram.py', 'PYMODULE'),
  ('lib2to3', 'C:\\Python36\\lib\\lib2to3\\__init__.py', 'PYMODULE'),
  ('lib2to3.patcomp', 'C:\\Python36\\lib\\lib2to3\\patcomp.py', 'PYMODULE'),
  ('lib2to3.pgen2.literals',
   'C:\\Python36\\lib\\lib2to3\\pgen2\\literals.py',
   'PYMODULE'),
  ('lib2to3.pgen2.parse',
   'C:\\Python36\\lib\\lib2to3\\pgen2\\parse.py',
   'PYMODULE'),
  ('lib2to3.fixer_util',
   'C:\\Python36\\lib\\lib2to3\\fixer_util.py',
   'PYMODULE'),
  ('lib2to3.pgen2.tokenize',
   'C:\\Python36\\lib\\lib2to3\\pgen2\\tokenize.py',
   'PYMODULE'),
  ('lib2to3.pgen2.token',
   'C:\\Python36\\lib\\lib2to3\\pgen2\\token.py',
   'PYMODULE'),
  ('lib2to3.pgen2.driver',
   'C:\\Python36\\lib\\lib2to3\\pgen2\\driver.py',
   'PYMODULE'),
  ('lib2to3.pgen2.pgen',
   'C:\\Python36\\lib\\lib2to3\\pgen2\\pgen.py',
   'PYMODULE'),
  ('lib2to3.pgen2',
   'C:\\Python36\\lib\\lib2to3\\pgen2\\__init__.py',
   'PYMODULE'),
  ('distutils.sysconfig',
   'C:\\Python36\\lib\\distutils\\sysconfig.py',
   'PYMODULE'),
  ('distutils.text_file',
   'C:\\Python36\\lib\\distutils\\text_file.py',
   'PYMODULE'),
  ('_osx_support', 'C:\\Python36\\lib\\_osx_support.py', 'PYMODULE'),
  ('distutils.log', 'C:\\Python36\\lib\\distutils\\log.py', 'PYMODULE'),
  ('distutils', 'C:\\Python36\\lib\\distutils\\__init__.py', 'PYMODULE'),
  ('distutils.archive_util',
   'C:\\Python36\\lib\\distutils\\archive_util.py',
   'PYMODULE'),
  ('distutils.ccompiler',
   'C:\\Python36\\lib\\distutils\\ccompiler.py',
   'PYMODULE'),
  ('distutils.fancy_getopt',
   'C:\\Python36\\lib\\distutils\\fancy_getopt.py',
   'PYMODULE'),
  ('distutils.spawn', 'C:\\Python36\\lib\\distutils\\spawn.py', 'PYMODULE'),
  ('distutils.dep_util',
   'C:\\Python36\\lib\\distutils\\dep_util.py',
   'PYMODULE'),
  ('distutils.errors', 'C:\\Python36\\lib\\distutils\\errors.py', 'PYMODULE'),
  ('sysconfig', 'C:\\Python36\\lib\\sysconfig.py', 'PYMODULE'),
  ('appdirs', 'C:\\Python36\\lib\\site-packages\\appdirs.py', 'PYMODULE'),
  ('packaging.markers',
   'C:\\Python36\\lib\\site-packages\\packaging\\markers.py',
   'PYMODULE'),
  ('packaging',
   'C:\\Python36\\lib\\site-packages\\packaging\\__init__.py',
   'PYMODULE'),
  ('packaging.__about__',
   'C:\\Python36\\lib\\site-packages\\packaging\\__about__.py',
   'PYMODULE'),
  ('packaging._compat',
   'C:\\Python36\\lib\\site-packages\\packaging\\_compat.py',
   'PYMODULE'),
  ('pyparsing', 'C:\\Python36\\lib\\site-packages\\pyparsing.py', 'PYMODULE'),
  ('uuid', 'C:\\Python36\\lib\\uuid.py', 'PYMODULE'),
  ('ctypes.util', 'C:\\Python36\\lib\\ctypes\\util.py', 'PYMODULE'),
  ('ctypes.macholib.dyld',
   'C:\\Python36\\lib\\ctypes\\macholib\\dyld.py',
   'PYMODULE'),
  ('ctypes.macholib',
   'C:\\Python36\\lib\\ctypes\\macholib\\__init__.py',
   'PYMODULE'),
  ('ctypes.macholib.dylib',
   'C:\\Python36\\lib\\ctypes\\macholib\\dylib.py',
   'PYMODULE'),
  ('ctypes.macholib.framework',
   'C:\\Python36\\lib\\ctypes\\macholib\\framework.py',
   'PYMODULE'),
  ('netbios',
   'C:\\Python36\\lib\\site-packages\\win32\\lib\\netbios.py',
   'PYMODULE'),
  ('packaging.requirements',
   'C:\\Python36\\lib\\site-packages\\packaging\\requirements.py',
   'PYMODULE'),
  ('packaging.specifiers',
   'C:\\Python36\\lib\\site-packages\\packaging\\specifiers.py',
   'PYMODULE'),
  ('packaging.version',
   'C:\\Python36\\lib\\site-packages\\packaging\\version.py',
   'PYMODULE'),
  ('packaging._structures',
   'C:\\Python36\\lib\\site-packages\\packaging\\_structures.py',
   'PYMODULE'),
  ('configparser', 'C:\\Python36\\lib\\configparser.py', 'PYMODULE'),
  ('six', 'C:\\Python36\\lib\\site-packages\\six.py', 'PYMODULE'),
  ('imp', 'C:\\Python36\\lib\\imp.py', 'PYMODULE'),
  ('ntpath', 'C:\\Python36\\lib\\ntpath.py', 'PYMODULE'),
  ('_strptime', 'C:\\Python36\\lib\\_strptime.py', 'PYMODULE'),
  ('datetime', 'C:\\Python36\\lib\\datetime.py', 'PYMODULE'),
  ('stringprep', 'C:\\Python36\\lib\\stringprep.py', 'PYMODULE'),
  ('__future__', 'C:\\Python36\\lib\\__future__.py', 'PYMODULE'),
  ('argparse', 'C:\\Python36\\lib\\argparse.py', 'PYMODULE'),
  ('difflib', 'C:\\Python36\\lib\\difflib.py', 'PYMODULE'),
  ('ast', 'C:\\Python36\\lib\\ast.py', 'PYMODULE'),
  ('inspect', 'C:\\Python36\\lib\\inspect.py', 'PYMODULE'),
  ('cmd', 'C:\\Python36\\lib\\cmd.py', 'PYMODULE'),
  ('bdb', 'C:\\Python36\\lib\\bdb.py', 'PYMODULE'),
  ('opcode', 'C:\\Python36\\lib\\opcode.py', 'PYMODULE'),
  ('dis', 'C:\\Python36\\lib\\dis.py', 'PYMODULE'),
  ('codeop', 'C:\\Python36\\lib\\codeop.py', 'PYMODULE'),
  ('code', 'C:\\Python36\\lib\\code.py', 'PYMODULE'),
  ('glob', 'C:\\Python36\\lib\\glob.py', 'PYMODULE'),
  ('shlex', 'C:\\Python36\\lib\\shlex.py', 'PYMODULE'),
  ('importlib._bootstrap',
   'C:\\Python36\\lib\\importlib\\_bootstrap.py',
   'PYMODULE'),
  ('importlib._bootstrap_external',
   'C:\\Python36\\lib\\importlib\\_bootstrap_external.py',
   'PYMODULE'),
  ('importlib.machinery',
   'C:\\Python36\\lib\\importlib\\machinery.py',
   'PYMODULE'),
  ('importlib.util', 'C:\\Python36\\lib\\importlib\\util.py', 'PYMODULE'),
  ('importlib.abc', 'C:\\Python36\\lib\\importlib\\abc.py', 'PYMODULE'),
  ('importlib', 'C:\\Python36\\lib\\importlib\\__init__.py', 'PYMODULE'),
  ('pkgutil', 'C:\\Python36\\lib\\pkgutil.py', 'PYMODULE'),
  ('xml', 'C:\\Python36\\lib\\xml\\__init__.py', 'PYMODULE'),
  ('xml.sax.expatreader',
   'C:\\Python36\\lib\\xml\\sax\\expatreader.py',
   'PYMODULE'),
  ('xml.sax.saxutils', 'C:\\Python36\\lib\\xml\\sax\\saxutils.py', 'PYMODULE'),
  ('urllib.request', 'C:\\Python36\\lib\\urllib\\request.py', 'PYMODULE'),
  ('getpass', 'C:\\Python36\\lib\\getpass.py', 'PYMODULE'),
  ('nturl2path', 'C:\\Python36\\lib\\nturl2path.py', 'PYMODULE'),
  ('ftplib', 'C:\\Python36\\lib\\ftplib.py', 'PYMODULE'),
  ('netrc', 'C:\\Python36\\lib\\netrc.py', 'PYMODULE'),
  ('http.cookiejar', 'C:\\Python36\\lib\\http\\cookiejar.py', 'PYMODULE'),
  ('urllib.response', 'C:\\Python36\\lib\\urllib\\response.py', 'PYMODULE'),
  ('urllib.error', 'C:\\Python36\\lib\\urllib\\error.py', 'PYMODULE'),
  ('xml.sax', 'C:\\Python36\\lib\\xml\\sax\\__init__.py', 'PYMODULE'),
  ('xml.sax.handler', 'C:\\Python36\\lib\\xml\\sax\\handler.py', 'PYMODULE'),
  ('xml.sax._exceptions',
   'C:\\Python36\\lib\\xml\\sax\\_exceptions.py',
   'PYMODULE'),
  ('xml.sax.xmlreader',
   'C:\\Python36\\lib\\xml\\sax\\xmlreader.py',
   'PYMODULE'),
  ('xml.parsers', 'C:\\Python36\\lib\\xml\\parsers\\__init__.py', 'PYMODULE'),
  ('xml.parsers.expat',
   'C:\\Python36\\lib\\xml\\parsers\\expat.py',
   'PYMODULE'),
  ('plistlib', 'C:\\Python36\\lib\\plistlib.py', 'PYMODULE'),
  ('platform', 'C:\\Python36\\lib\\platform.py', 'PYMODULE'),
  ('token', 'C:\\Python36\\lib\\token.py', 'PYMODULE'),
  ('tokenize', 'C:\\Python36\\lib\\tokenize.py', 'PYMODULE'),
  ('urllib.parse', 'C:\\Python36\\lib\\urllib\\parse.py', 'PYMODULE'),
  ('tempfile', 'C:\\Python36\\lib\\tempfile.py', 'PYMODULE'),
  ('subprocess', 'C:\\Python36\\lib\\subprocess.py', 'PYMODULE'),
  ('tty', 'C:\\Python36\\lib\\tty.py', 'PYMODULE'),
  ('pydoc_data', 'C:\\Python36\\lib\\pydoc_data\\__init__.py', 'PYMODULE'),
  ('pydoc_data.topics', 'C:\\Python36\\lib\\pydoc_data\\topics.py', 'PYMODULE'),
  ('textwrap', 'C:\\Python36\\lib\\textwrap.py', 'PYMODULE'),
  ('html.entities', 'C:\\Python36\\lib\\html\\entities.py', 'PYMODULE'),
  ('html', 'C:\\Python36\\lib\\html\\__init__.py', 'PYMODULE'),
  ('ipaddress', 'C:\\Python36\\lib\\ipaddress.py', 'PYMODULE'),
  ('ssl', 'C:\\Python36\\lib\\ssl.py', 'PYMODULE'),
  ('http.client', 'C:\\Python36\\lib\\http\\client.py', 'PYMODULE'),
  ('mimetypes', 'C:\\Python36\\lib\\mimetypes.py', 'PYMODULE'),
  ('socketserver', 'C:\\Python36\\lib\\socketserver.py', 'PYMODULE'),
  ('http', 'C:\\Python36\\lib\\http\\__init__.py', 'PYMODULE'),
  ('http.server', 'C:\\Python36\\lib\\http\\server.py', 'PYMODULE'),
  ('optparse', 'C:\\Python36\\lib\\optparse.py', 'PYMODULE'),
  ('uu', 'C:\\Python36\\lib\\uu.py', 'PYMODULE'),
  ('quopri', 'C:\\Python36\\lib\\quopri.py', 'PYMODULE'),
  ('email.feedparser', 'C:\\Python36\\lib\\email\\feedparser.py', 'PYMODULE'),
  ('email.parser', 'C:\\Python36\\lib\\email\\parser.py', 'PYMODULE'),
  ('email', 'C:\\Python36\\lib\\email\\__init__.py', 'PYMODULE'),
  ('calendar', 'C:\\Python36\\lib\\calendar.py', 'PYMODULE'),
  ('email._parseaddr', 'C:\\Python36\\lib\\email\\_parseaddr.py', 'PYMODULE'),
  ('email.utils', 'C:\\Python36\\lib\\email\\utils.py', 'PYMODULE'),
  ('email.errors', 'C:\\Python36\\lib\\email\\errors.py', 'PYMODULE'),
  ('email.header', 'C:\\Python36\\lib\\email\\header.py', 'PYMODULE'),
  ('email._policybase', 'C:\\Python36\\lib\\email\\_policybase.py', 'PYMODULE'),
  ('email.base64mime', 'C:\\Python36\\lib\\email\\base64mime.py', 'PYMODULE'),
  ('email.encoders', 'C:\\Python36\\lib\\email\\encoders.py', 'PYMODULE'),
  ('email.charset', 'C:\\Python36\\lib\\email\\charset.py', 'PYMODULE'),
  ('base64', 'C:\\Python36\\lib\\base64.py', 'PYMODULE'),
  ('email._encoded_words',
   'C:\\Python36\\lib\\email\\_encoded_words.py',
   'PYMODULE'),
  ('hashlib', 'C:\\Python36\\lib\\hashlib.py', 'PYMODULE'),
  ('bisect', 'C:\\Python36\\lib\\bisect.py', 'PYMODULE'),
  ('random', 'C:\\Python36\\lib\\random.py', 'PYMODULE'),
  ('email.generator', 'C:\\Python36\\lib\\email\\generator.py', 'PYMODULE'),
  ('email.iterators', 'C:\\Python36\\lib\\email\\iterators.py', 'PYMODULE'),
  ('urllib', 'C:\\Python36\\lib\\urllib\\__init__.py', 'PYMODULE'),
  ('email._header_value_parser',
   'C:\\Python36\\lib\\email\\_header_value_parser.py',
   'PYMODULE'),
  ('email.headerregistry',
   'C:\\Python36\\lib\\email\\headerregistry.py',
   'PYMODULE'),
  ('email.quoprimime', 'C:\\Python36\\lib\\email\\quoprimime.py', 'PYMODULE'),
  ('email.contentmanager',
   'C:\\Python36\\lib\\email\\contentmanager.py',
   'PYMODULE'),
  ('email.policy', 'C:\\Python36\\lib\\email\\policy.py', 'PYMODULE'),
  ('email.message', 'C:\\Python36\\lib\\email\\message.py', 'PYMODULE'),
  ('bz2', 'C:\\Python36\\lib\\bz2.py', 'PYMODULE'),
  ('lzma', 'C:\\Python36\\lib\\lzma.py', 'PYMODULE'),
  ('_compression', 'C:\\Python36\\lib\\_compression.py', 'PYMODULE'),
  ('gzip', 'C:\\Python36\\lib\\gzip.py', 'PYMODULE'),
  ('tarfile', 'C:\\Python36\\lib\\tarfile.py', 'PYMODULE'),
  ('_dummy_thread', 'C:\\Python36\\lib\\_dummy_thread.py', 'PYMODULE'),
  ('dummy_threading', 'C:\\Python36\\lib\\dummy_threading.py', 'PYMODULE'),
  ('py_compile', 'C:\\Python36\\lib\\py_compile.py', 'PYMODULE'),
  ('zipfile', 'C:\\Python36\\lib\\zipfile.py', 'PYMODULE'),
  ('shutil', 'C:\\Python36\\lib\\shutil.py', 'PYMODULE'),
  ('selectors', 'C:\\Python36\\lib\\selectors.py', 'PYMODULE'),
  ('socket', 'C:\\Python36\\lib\\socket.py', 'PYMODULE'),
  ('webbrowser', 'C:\\Python36\\lib\\webbrowser.py', 'PYMODULE'),
  ('pydoc', 'C:\\Python36\\lib\\pydoc.py', 'PYMODULE'),
  ('copy', 'C:\\Python36\\lib\\copy.py', 'PYMODULE'),
  ('gettext', 'C:\\Python36\\lib\\gettext.py', 'PYMODULE'),
  ('getopt', 'C:\\Python36\\lib\\getopt.py', 'PYMODULE'),
  ('pdb', 'C:\\Python36\\lib\\pdb.py', 'PYMODULE'),
  ('unittest.util', 'C:\\Python36\\lib\\unittest\\util.py', 'PYMODULE'),
  ('unittest.result', 'C:\\Python36\\lib\\unittest\\result.py', 'PYMODULE'),
  ('string', 'C:\\Python36\\lib\\string.py', 'PYMODULE'),
  ('_threading_local', 'C:\\Python36\\lib\\_threading_local.py', 'PYMODULE'),
  ('logging', 'C:\\Python36\\lib\\logging\\__init__.py', 'PYMODULE'),
  ('contextlib', 'C:\\Python36\\lib\\contextlib.py', 'PYMODULE'),
  ('unittest.case', 'C:\\Python36\\lib\\unittest\\case.py', 'PYMODULE'),
  ('unittest.suite', 'C:\\Python36\\lib\\unittest\\suite.py', 'PYMODULE'),
  ('unittest.loader', 'C:\\Python36\\lib\\unittest\\loader.py', 'PYMODULE'),
  ('stat', 'C:\\Python36\\lib\\stat.py', 'PYMODULE'),
  ('genericpath', 'C:\\Python36\\lib\\genericpath.py', 'PYMODULE'),
  ('posixpath', 'C:\\Python36\\lib\\posixpath.py', 'PYMODULE'),
  ('fnmatch', 'C:\\Python36\\lib\\fnmatch.py', 'PYMODULE'),
  ('struct', 'C:\\Python36\\lib\\struct.py', 'PYMODULE'),
  ('_compat_pickle', 'C:\\Python36\\lib\\_compat_pickle.py', 'PYMODULE'),
  ('pprint', 'C:\\Python36\\lib\\pprint.py', 'PYMODULE'),
  ('pickle', 'C:\\Python36\\lib\\pickle.py', 'PYMODULE'),
  ('tracemalloc', 'C:\\Python36\\lib\\tracemalloc.py', 'PYMODULE'),
  ('warnings', 'C:\\Python36\\lib\\warnings.py', 'PYMODULE'),
  ('unittest.runner', 'C:\\Python36\\lib\\unittest\\runner.py', 'PYMODULE'),
  ('unittest.main', 'C:\\Python36\\lib\\unittest\\main.py', 'PYMODULE'),
  ('enum', 'C:\\Python36\\lib\\enum.py', 'PYMODULE'),
  ('signal', 'C:\\Python36\\lib\\signal.py', 'PYMODULE'),
  ('unittest.signals', 'C:\\Python36\\lib\\unittest\\signals.py', 'PYMODULE'),
  ('unittest', 'C:\\Python36\\lib\\unittest\\__init__.py', 'PYMODULE'),
  ('doctest', 'C:\\Python36\\lib\\doctest.py', 'PYMODULE'),
  ('queue', 'C:\\Python36\\lib\\queue.py', 'PYMODULE'),
  ('threading', 'C:\\Python36\\lib\\threading.py', 'PYMODULE'),
  ('pygame',
   'C:\\Python36\\lib\\site-packages\\pygame\\__init__.py',
   'PYMODULE'),
  ('pygame.colordict',
   'C:\\Python36\\lib\\site-packages\\pygame\\colordict.py',
   'PYMODULE'),
  ('pygame.macosx',
   'C:\\Python36\\lib\\site-packages\\pygame\\macosx.py',
   'PYMODULE'),
  ('pygame.pkgdata',
   'C:\\Python36\\lib\\site-packages\\pygame\\pkgdata.py',
   'PYMODULE'),
  ('numpy', 'C:\\Python36\\lib\\site-packages\\numpy\\__init__.py', 'PYMODULE'),
  ('numpy.matrixlib',
   'C:\\Python36\\lib\\site-packages\\numpy\\matrixlib\\__init__.py',
   'PYMODULE'),
  ('numpy.testing.nosetester',
   'C:\\Python36\\lib\\site-packages\\numpy\\testing\\nosetester.py',
   'PYMODULE'),
  ('numpy.distutils.cpuinfo',
   'C:\\Python36\\lib\\site-packages\\numpy\\distutils\\cpuinfo.py',
   'PYMODULE'),
  ('numpy.distutils.compat',
   'C:\\Python36\\lib\\site-packages\\numpy\\distutils\\compat.py',
   'PYMODULE'),
  ('numpy.distutils',
   'C:\\Python36\\lib\\site-packages\\numpy\\distutils\\__init__.py',
   'PYMODULE'),
  ('numpy.distutils.__config__',
   'C:\\Python36\\lib\\site-packages\\numpy\\distutils\\__config__.py',
   'PYMODULE'),
  ('numpy.distutils.npy_pkg_config',
   'C:\\Python36\\lib\\site-packages\\numpy\\distutils\\npy_pkg_config.py',
   'PYMODULE'),
  ('numpy.distutils.info',
   'C:\\Python36\\lib\\site-packages\\numpy\\distutils\\info.py',
   'PYMODULE'),
  ('numpy.distutils.unixccompiler',
   'C:\\Python36\\lib\\site-packages\\numpy\\distutils\\unixccompiler.py',
   'PYMODULE'),
  ('numpy.distutils.misc_util',
   'C:\\Python36\\lib\\site-packages\\numpy\\distutils\\misc_util.py',
   'PYMODULE'),
  ('distutils.core', 'C:\\Python36\\lib\\distutils\\core.py', 'PYMODULE'),
  ('distutils.extension',
   'C:\\Python36\\lib\\distutils\\extension.py',
   'PYMODULE'),
  ('distutils.config', 'C:\\Python36\\lib\\distutils\\config.py', 'PYMODULE'),
  ('cgi', 'C:\\Python36\\lib\\cgi.py', 'PYMODULE'),
  ('distutils.cmd', 'C:\\Python36\\lib\\distutils\\cmd.py', 'PYMODULE'),
  ('distutils.dist', 'C:\\Python36\\lib\\distutils\\dist.py', 'PYMODULE'),
  ('distutils.versionpredicate',
   'C:\\Python36\\lib\\distutils\\versionpredicate.py',
   'PYMODULE'),
  ('distutils.version', 'C:\\Python36\\lib\\distutils\\version.py', 'PYMODULE'),
  ('distutils.command',
   'C:\\Python36\\lib\\distutils\\command\\__init__.py',
   'PYMODULE'),
  ('numpy.distutils.system_info',
   'C:\\Python36\\lib\\site-packages\\numpy\\distutils\\system_info.py',
   'PYMODULE'),
  ('numpy.f2py',
   'C:\\Python36\\lib\\site-packages\\numpy\\f2py\\__init__.py',
   'PYMODULE'),
  ('numpy.f2py.diagnose',
   'C:\\Python36\\lib\\site-packages\\numpy\\f2py\\diagnose.py',
   'PYMODULE'),
  ('numpy.distutils.fcompiler',
   'C:\\Python36\\lib\\site-packages\\numpy\\distutils\\fcompiler\\__init__.py',
   'PYMODULE'),
  ('numpy.distutils.command.config_compiler',
   'C:\\Python36\\lib\\site-packages\\numpy\\distutils\\command\\config_compiler.py',
   'PYMODULE'),
  ('numpy.distutils.command',
   'C:\\Python36\\lib\\site-packages\\numpy\\distutils\\command\\__init__.py',
   'PYMODULE'),
  ('numpy.distutils.command.egg_info',
   'C:\\Python36\\lib\\site-packages\\numpy\\distutils\\command\\egg_info.py',
   'PYMODULE'),
  ('setuptools.command.egg_info',
   'C:\\Python36\\lib\\site-packages\\setuptools\\command\\egg_info.py',
   'PYMODULE'),
  ('setuptools.glob',
   'C:\\Python36\\lib\\site-packages\\setuptools\\glob.py',
   'PYMODULE'),
  ('setuptools.unicode_utils',
   'C:\\Python36\\lib\\site-packages\\setuptools\\unicode_utils.py',
   'PYMODULE'),
  ('setuptools.command.bdist_egg',
   'C:\\Python36\\lib\\site-packages\\setuptools\\command\\bdist_egg.py',
   'PYMODULE'),
  ('setuptools.extension',
   'C:\\Python36\\lib\\site-packages\\setuptools\\extension.py',
   'PYMODULE'),
  ('setuptools.monkey',
   'C:\\Python36\\lib\\site-packages\\setuptools\\monkey.py',
   'PYMODULE'),
  ('setuptools.py26compat',
   'C:\\Python36\\lib\\site-packages\\setuptools\\py26compat.py',
   'PYMODULE'),
  ('setuptools.command',
   'C:\\Python36\\lib\\site-packages\\setuptools\\command\\__init__.py',
   'PYMODULE'),
  ('setuptools.command.install_scripts',
   'C:\\Python36\\lib\\site-packages\\setuptools\\command\\install_scripts.py',
   'PYMODULE'),
  ('setuptools.command.easy_install',
   'C:\\Python36\\lib\\site-packages\\setuptools\\command\\easy_install.py',
   'PYMODULE'),
  ('setuptools.dist',
   'C:\\Python36\\lib\\site-packages\\setuptools\\dist.py',
   'PYMODULE'),
  ('setuptools.py36compat',
   'C:\\Python36\\lib\\site-packages\\setuptools\\py36compat.py',
   'PYMODULE'),
  ('setuptools.config',
   'C:\\Python36\\lib\\site-packages\\setuptools\\config.py',
   'PYMODULE'),
  ('setuptools.windows_support',
   'C:\\Python36\\lib\\site-packages\\setuptools\\windows_support.py',
   'PYMODULE'),
  ('setuptools.depends',
   'C:\\Python36\\lib\\site-packages\\setuptools\\depends.py',
   'PYMODULE'),
  ('setuptools.py33compat',
   'C:\\Python36\\lib\\site-packages\\setuptools\\py33compat.py',
   'PYMODULE'),
  ('setuptools.package_index',
   'C:\\Python36\\lib\\site-packages\\setuptools\\package_index.py',
   'PYMODULE'),
  ('setuptools.ssl_support',
   'C:\\Python36\\lib\\site-packages\\setuptools\\ssl_support.py',
   'PYMODULE'),
  ('setuptools.archive_util',
   'C:\\Python36\\lib\\site-packages\\setuptools\\archive_util.py',
   'PYMODULE'),
  ('setuptools.py27compat',
   'C:\\Python36\\lib\\site-packages\\setuptools\\py27compat.py',
   'PYMODULE'),
  ('setuptools.py31compat',
   'C:\\Python36\\lib\\site-packages\\setuptools\\py31compat.py',
   'PYMODULE'),
  ('setuptools.sandbox',
   'C:\\Python36\\lib\\site-packages\\setuptools\\sandbox.py',
   'PYMODULE'),
  ('site',
   'C:\\Python36\\pyinstaller-pyinstaller-8998a9d\\PyInstaller\\fake-modules\\site.py',
   'PYMODULE'),
  ('distutils.command.build_scripts',
   'C:\\Python36\\lib\\distutils\\command\\build_scripts.py',
   'PYMODULE'),
  ('distutils.command.install',
   'C:\\Python36\\lib\\distutils\\command\\install.py',
   'PYMODULE'),
  ('distutils.command.install_scripts',
   'C:\\Python36\\lib\\distutils\\command\\install_scripts.py',
   'PYMODULE'),
  ('distutils.command.bdist',
   'C:\\Python36\\lib\\distutils\\command\\bdist.py',
   'PYMODULE'),
  ('setuptools.command.setopt',
   'C:\\Python36\\lib\\site-packages\\setuptools\\command\\setopt.py',
   'PYMODULE'),
  ('setuptools.command.sdist',
   'C:\\Python36\\lib\\site-packages\\setuptools\\command\\sdist.py',
   'PYMODULE'),
  ('setuptools.command.py36compat',
   'C:\\Python36\\lib\\site-packages\\setuptools\\command\\py36compat.py',
   'PYMODULE'),
  ('distutils.command.sdist',
   'C:\\Python36\\lib\\distutils\\command\\sdist.py',
   'PYMODULE'),
  ('setuptools',
   'C:\\Python36\\lib\\site-packages\\setuptools\\__init__.py',
   'PYMODULE'),
  ('setuptools.msvc',
   'C:\\Python36\\lib\\site-packages\\setuptools\\msvc.py',
   'PYMODULE'),
  ('distutils.msvc9compiler',
   'C:\\Python36\\lib\\distutils\\msvc9compiler.py',
   'PYMODULE'),
  ('distutils.command.build_ext',
   'C:\\Python36\\lib\\distutils\\command\\build_ext.py',
   'PYMODULE'),
  ('distutils._msvccompiler',
   'C:\\Python36\\lib\\distutils\\_msvccompiler.py',
   'PYMODULE'),
  ('concurrent.futures',
   'C:\\Python36\\lib\\concurrent\\futures\\__init__.py',
   'PYMODULE'),
  ('concurrent.futures.thread',
   'C:\\Python36\\lib\\concurrent\\futures\\thread.py',
   'PYMODULE'),
  ('concurrent.futures.process',
   'C:\\Python36\\lib\\concurrent\\futures\\process.py',
   'PYMODULE'),
  ('concurrent.futures._base',
   'C:\\Python36\\lib\\concurrent\\futures\\_base.py',
   'PYMODULE'),
  ('concurrent', 'C:\\Python36\\lib\\concurrent\\__init__.py', 'PYMODULE'),
  ('setuptools.namespaces',
   'C:\\Python36\\lib\\site-packages\\setuptools\\namespaces.py',
   'PYMODULE'),
  ('setuptools.version',
   'C:\\Python36\\lib\\site-packages\\setuptools\\version.py',
   'PYMODULE'),
  ('numpy.distutils.command.develop',
   'C:\\Python36\\lib\\site-packages\\numpy\\distutils\\command\\develop.py',
   'PYMODULE'),
  ('setuptools.command.develop',
   'C:\\Python36\\lib\\site-packages\\setuptools\\command\\develop.py',
   'PYMODULE'),
  ('numpy.distutils.command.install_data',
   'C:\\Python36\\lib\\site-packages\\numpy\\distutils\\command\\install_data.py',
   'PYMODULE'),
  ('distutils.command.install_data',
   'C:\\Python36\\lib\\distutils\\command\\install_data.py',
   'PYMODULE'),
  ('numpy.distutils.command.build_scripts',
   'C:\\Python36\\lib\\site-packages\\numpy\\distutils\\command\\build_scripts.py',
   'PYMODULE'),
  ('numpy.distutils.command.build',
   'C:\\Python36\\lib\\site-packages\\numpy\\distutils\\command\\build.py',
   'PYMODULE'),
  ('distutils.command.build',
   'C:\\Python36\\lib\\distutils\\command\\build.py',
   'PYMODULE'),
  ('numpy.distutils.command.build_clib',
   'C:\\Python36\\lib\\site-packages\\numpy\\distutils\\command\\build_clib.py',
   'PYMODULE'),
  ('distutils.command.build_clib',
   'C:\\Python36\\lib\\distutils\\command\\build_clib.py',
   'PYMODULE'),
  ('numpy.distutils.command.bdist_rpm',
   'C:\\Python36\\lib\\site-packages\\numpy\\distutils\\command\\bdist_rpm.py',
   'PYMODULE'),
  ('distutils.command.bdist_rpm',
   'C:\\Python36\\lib\\distutils\\command\\bdist_rpm.py',
   'PYMODULE'),
  ('setuptools.command.bdist_rpm',
   'C:\\Python36\\lib\\site-packages\\setuptools\\command\\bdist_rpm.py',
   'PYMODULE'),
  ('numpy.distutils.command.build_ext',
   'C:\\Python36\\lib\\site-packages\\numpy\\distutils\\command\\build_ext.py',
   'PYMODULE'),
  ('numpy.distutils.command.install',
   'C:\\Python36\\lib\\site-packages\\numpy\\distutils\\command\\install.py',
   'PYMODULE'),
  ('setuptools.command.install',
   'C:\\Python36\\lib\\site-packages\\setuptools\\command\\install.py',
   'PYMODULE'),
  ('numpy.distutils.command.install_clib',
   'C:\\Python36\\lib\\site-packages\\numpy\\distutils\\command\\install_clib.py',
   'PYMODULE'),
  ('numpy.distutils.command.sdist',
   'C:\\Python36\\lib\\site-packages\\numpy\\distutils\\command\\sdist.py',
   'PYMODULE'),
  ('numpy.distutils.command.install_headers',
   'C:\\Python36\\lib\\site-packages\\numpy\\distutils\\command\\install_headers.py',
   'PYMODULE'),
  ('distutils.command.install_headers',
   'C:\\Python36\\lib\\distutils\\command\\install_headers.py',
   'PYMODULE'),
  ('numpy.distutils.command.build_py',
   'C:\\Python36\\lib\\site-packages\\numpy\\distutils\\command\\build_py.py',
   'PYMODULE'),
  ('distutils.command.build_py',
   'C:\\Python36\\lib\\distutils\\command\\build_py.py',
   'PYMODULE'),
  ('numpy.distutils.environment',
   'C:\\Python36\\lib\\site-packages\\numpy\\distutils\\environment.py',
   'PYMODULE'),
  ('numpy.f2py.f2py_testing',
   'C:\\Python36\\lib\\site-packages\\numpy\\f2py\\f2py_testing.py',
   'PYMODULE'),
  ('numpy.f2py.f2py2e',
   'C:\\Python36\\lib\\site-packages\\numpy\\f2py\\f2py2e.py',
   'PYMODULE'),
  ('numpy.distutils.command.build_src',
   'C:\\Python36\\lib\\site-packages\\numpy\\distutils\\command\\build_src.py',
   'PYMODULE'),
  ('numpy.distutils.conv_template',
   'C:\\Python36\\lib\\site-packages\\numpy\\distutils\\conv_template.py',
   'PYMODULE'),
  ('numpy.distutils.from_template',
   'C:\\Python36\\lib\\site-packages\\numpy\\distutils\\from_template.py',
   'PYMODULE'),
  ('numpy.f2py.auxfuncs',
   'C:\\Python36\\lib\\site-packages\\numpy\\f2py\\auxfuncs.py',
   'PYMODULE'),
  ('numpy.f2py.f90mod_rules',
   'C:\\Python36\\lib\\site-packages\\numpy\\f2py\\f90mod_rules.py',
   'PYMODULE'),
  ('numpy.f2py.rules',
   'C:\\Python36\\lib\\site-packages\\numpy\\f2py\\rules.py',
   'PYMODULE'),
  ('numpy.f2py.use_rules',
   'C:\\Python36\\lib\\site-packages\\numpy\\f2py\\use_rules.py',
   'PYMODULE'),
  ('numpy.f2py.common_rules',
   'C:\\Python36\\lib\\site-packages\\numpy\\f2py\\common_rules.py',
   'PYMODULE'),
  ('numpy.f2py.func2subr',
   'C:\\Python36\\lib\\site-packages\\numpy\\f2py\\func2subr.py',
   'PYMODULE'),
  ('numpy.f2py.crackfortran',
   'C:\\Python36\\lib\\site-packages\\numpy\\f2py\\crackfortran.py',
   'PYMODULE'),
  ('fileinput', 'C:\\Python36\\lib\\fileinput.py', 'PYMODULE'),
  ('numpy.f2py.cb_rules',
   'C:\\Python36\\lib\\site-packages\\numpy\\f2py\\cb_rules.py',
   'PYMODULE'),
  ('numpy.f2py.capi_maps',
   'C:\\Python36\\lib\\site-packages\\numpy\\f2py\\capi_maps.py',
   'PYMODULE'),
  ('numpy.f2py.cfuncs',
   'C:\\Python36\\lib\\site-packages\\numpy\\f2py\\cfuncs.py',
   'PYMODULE'),
  ('numpy.f2py.__version__',
   'C:\\Python36\\lib\\site-packages\\numpy\\f2py\\__version__.py',
   'PYMODULE'),
  ('numpy.distutils.command.config',
   'C:\\Python36\\lib\\site-packages\\numpy\\distutils\\command\\config.py',
   'PYMODULE'),
  ('numpy.distutils.command.autodist',
   'C:\\Python36\\lib\\site-packages\\numpy\\distutils\\command\\autodist.py',
   'PYMODULE'),
  ('numpy.distutils.mingw32ccompiler',
   'C:\\Python36\\lib\\site-packages\\numpy\\distutils\\mingw32ccompiler.py',
   'PYMODULE'),
  ('distutils.cygwinccompiler',
   'C:\\Python36\\lib\\distutils\\cygwinccompiler.py',
   'PYMODULE'),
  ('distutils.command.config',
   'C:\\Python36\\lib\\distutils\\command\\config.py',
   'PYMODULE'),
  ('numpy.distutils.exec_command',
   'C:\\Python36\\lib\\site-packages\\numpy\\distutils\\exec_command.py',
   'PYMODULE'),
  ('curses', 'C:\\Python36\\lib\\curses\\__init__.py', 'PYMODULE'),
  ('curses.has_key', 'C:\\Python36\\lib\\curses\\has_key.py', 'PYMODULE'),
  ('numpy.distutils.core',
   'C:\\Python36\\lib\\site-packages\\numpy\\distutils\\core.py',
   'PYMODULE'),
  ('numpy.distutils.numpy_distribution',
   'C:\\Python36\\lib\\site-packages\\numpy\\distutils\\numpy_distribution.py',
   'PYMODULE'),
  ('numpy.distutils.extension',
   'C:\\Python36\\lib\\site-packages\\numpy\\distutils\\extension.py',
   'PYMODULE'),
  ('distutils.msvccompiler',
   'C:\\Python36\\lib\\distutils\\msvccompiler.py',
   'PYMODULE'),
  ('win32con',
   'C:\\Python36\\lib\\site-packages\\win32\\lib\\win32con.py',
   'PYMODULE'),
  ('distutils.unixccompiler',
   'C:\\Python36\\lib\\distutils\\unixccompiler.py',
   'PYMODULE'),
  ('numpy.distutils.ccompiler',
   'C:\\Python36\\lib\\site-packages\\numpy\\distutils\\ccompiler.py',
   'PYMODULE'),
  ('numpy.distutils.lib2def',
   'C:\\Python36\\lib\\site-packages\\numpy\\distutils\\lib2def.py',
   'PYMODULE'),
  ('numpy.distutils.log',
   'C:\\Python36\\lib\\site-packages\\numpy\\distutils\\log.py',
   'PYMODULE'),
  ('numpy.distutils.__version__',
   'C:\\Python36\\lib\\site-packages\\numpy\\distutils\\__version__.py',
   'PYMODULE'),
  ('numpy.testing.noseclasses',
   'C:\\Python36\\lib\\site-packages\\numpy\\testing\\noseclasses.py',
   'PYMODULE'),
  ('numpy.testing.utils',
   'C:\\Python36\\lib\\site-packages\\numpy\\testing\\utils.py',
   'PYMODULE'),
  ('numpy.core.fromnumeric',
   'C:\\Python36\\lib\\site-packages\\numpy\\core\\fromnumeric.py',
   'PYMODULE'),
  ('numpy.core._methods',
   'C:\\Python36\\lib\\site-packages\\numpy\\core\\_methods.py',
   'PYMODULE'),
  ('numpy.core.numeric',
   'C:\\Python36\\lib\\site-packages\\numpy\\core\\numeric.py',
   'PYMODULE'),
  ('numpy.core.arrayprint',
   'C:\\Python36\\lib\\site-packages\\numpy\\core\\arrayprint.py',
   'PYMODULE'),
  ('numpy.core._internal',
   'C:\\Python36\\lib\\site-packages\\numpy\\core\\_internal.py',
   'PYMODULE'),
  ('numpy.core.numerictypes',
   'C:\\Python36\\lib\\site-packages\\numpy\\core\\numerictypes.py',
   'PYMODULE'),
  ('numpy.lib.utils',
   'C:\\Python36\\lib\\site-packages\\numpy\\lib\\utils.py',
   'PYMODULE'),
  ('numpy.matrixlib.defmatrix',
   'C:\\Python36\\lib\\site-packages\\numpy\\matrixlib\\defmatrix.py',
   'PYMODULE'),
  ('numpy.dual',
   'C:\\Python36\\lib\\site-packages\\numpy\\dual.py',
   'PYMODULE'),
  ('numpy.ma',
   'C:\\Python36\\lib\\site-packages\\numpy\\ma\\__init__.py',
   'PYMODULE'),
  ('numpy.ma.extras',
   'C:\\Python36\\lib\\site-packages\\numpy\\ma\\extras.py',
   'PYMODULE'),
  ('numpy.lib.index_tricks',
   'C:\\Python36\\lib\\site-packages\\numpy\\lib\\index_tricks.py',
   'PYMODULE'),
  ('numpy.lib.stride_tricks',
   'C:\\Python36\\lib\\site-packages\\numpy\\lib\\stride_tricks.py',
   'PYMODULE'),
  ('numpy.lib.function_base',
   'C:\\Python36\\lib\\site-packages\\numpy\\lib\\function_base.py',
   'PYMODULE'),
  ('numpy.compat.py3k',
   'C:\\Python36\\lib\\site-packages\\numpy\\compat\\py3k.py',
   'PYMODULE'),
  ('pathlib', 'C:\\Python36\\lib\\pathlib.py', 'PYMODULE'),
  ('numpy.lib.twodim_base',
   'C:\\Python36\\lib\\site-packages\\numpy\\lib\\twodim_base.py',
   'PYMODULE'),
  ('numpy.ma.core',
   'C:\\Python36\\lib\\site-packages\\numpy\\ma\\core.py',
   'PYMODULE'),
  ('numpy.ctypeslib',
   'C:\\Python36\\lib\\site-packages\\numpy\\ctypeslib.py',
   'PYMODULE'),
  ('numpy.random',
   'C:\\Python36\\lib\\site-packages\\numpy\\random\\__init__.py',
   'PYMODULE'),
  ('numpy.random.info',
   'C:\\Python36\\lib\\site-packages\\numpy\\random\\info.py',
   'PYMODULE'),
  ('numpy.polynomial',
   'C:\\Python36\\lib\\site-packages\\numpy\\polynomial\\__init__.py',
   'PYMODULE'),
  ('numpy.polynomial.laguerre',
   'C:\\Python36\\lib\\site-packages\\numpy\\polynomial\\laguerre.py',
   'PYMODULE'),
  ('numpy.polynomial._polybase',
   'C:\\Python36\\lib\\site-packages\\numpy\\polynomial\\_polybase.py',
   'PYMODULE'),
  ('numpy.polynomial.hermite_e',
   'C:\\Python36\\lib\\site-packages\\numpy\\polynomial\\hermite_e.py',
   'PYMODULE'),
  ('numpy.polynomial.hermite',
   'C:\\Python36\\lib\\site-packages\\numpy\\polynomial\\hermite.py',
   'PYMODULE'),
  ('numpy.polynomial.legendre',
   'C:\\Python36\\lib\\site-packages\\numpy\\polynomial\\legendre.py',
   'PYMODULE'),
  ('numpy.polynomial.chebyshev',
   'C:\\Python36\\lib\\site-packages\\numpy\\polynomial\\chebyshev.py',
   'PYMODULE'),
  ('numpy.polynomial.polynomial',
   'C:\\Python36\\lib\\site-packages\\numpy\\polynomial\\polynomial.py',
   'PYMODULE'),
  ('numpy.polynomial.polyutils',
   'C:\\Python36\\lib\\site-packages\\numpy\\polynomial\\polyutils.py',
   'PYMODULE'),
  ('numpy.fft',
   'C:\\Python36\\lib\\site-packages\\numpy\\fft\\__init__.py',
   'PYMODULE'),
  ('numpy.fft.helper',
   'C:\\Python36\\lib\\site-packages\\numpy\\fft\\helper.py',
   'PYMODULE'),
  ('numpy.fft.fftpack',
   'C:\\Python36\\lib\\site-packages\\numpy\\fft\\fftpack.py',
   'PYMODULE'),
  ('numpy.fft.info',
   'C:\\Python36\\lib\\site-packages\\numpy\\fft\\info.py',
   'PYMODULE'),
  ('numpy.linalg',
   'C:\\Python36\\lib\\site-packages\\numpy\\linalg\\__init__.py',
   'PYMODULE'),
  ('numpy.linalg.linalg',
   'C:\\Python36\\lib\\site-packages\\numpy\\linalg\\linalg.py',
   'PYMODULE'),
  ('numpy.linalg.info',
   'C:\\Python36\\lib\\site-packages\\numpy\\linalg\\info.py',
   'PYMODULE'),
  ('numpy.lib',
   'C:\\Python36\\lib\\site-packages\\numpy\\lib\\__init__.py',
   'PYMODULE'),
  ('numpy.lib._version',
   'C:\\Python36\\lib\\site-packages\\numpy\\lib\\_version.py',
   'PYMODULE'),
  ('numpy.lib.arraypad',
   'C:\\Python36\\lib\\site-packages\\numpy\\lib\\arraypad.py',
   'PYMODULE'),
  ('numpy.lib.arrayterator',
   'C:\\Python36\\lib\\site-packages\\numpy\\lib\\arrayterator.py',
   'PYMODULE'),
  ('numpy.lib.financial',
   'C:\\Python36\\lib\\site-packages\\numpy\\lib\\financial.py',
   'PYMODULE'),
  ('numpy.lib.npyio',
   'C:\\Python36\\lib\\site-packages\\numpy\\lib\\npyio.py',
   'PYMODULE'),
  ('numpy.ma.mrecords',
   'C:\\Python36\\lib\\site-packages\\numpy\\ma\\mrecords.py',
   'PYMODULE'),
  ('numpy.core.records',
   'C:\\Python36\\lib\\site-packages\\numpy\\core\\records.py',
   'PYMODULE'),
  ('numpy.lib._iotools',
   'C:\\Python36\\lib\\site-packages\\numpy\\lib\\_iotools.py',
   'PYMODULE'),
  ('numpy.lib._datasource',
   'C:\\Python36\\lib\\site-packages\\numpy\\lib\\_datasource.py',
   'PYMODULE'),
  ('numpy.lib.format',
   'C:\\Python36\\lib\\site-packages\\numpy\\lib\\format.py',
   'PYMODULE'),
  ('numpy.lib.arraysetops',
   'C:\\Python36\\lib\\site-packages\\numpy\\lib\\arraysetops.py',
   'PYMODULE'),
  ('numpy.lib.polynomial',
   'C:\\Python36\\lib\\site-packages\\numpy\\lib\\polynomial.py',
   'PYMODULE'),
  ('numpy.lib.scimath',
   'C:\\Python36\\lib\\site-packages\\numpy\\lib\\scimath.py',
   'PYMODULE'),
  ('numpy.lib.ufunclike',
   'C:\\Python36\\lib\\site-packages\\numpy\\lib\\ufunclike.py',
   'PYMODULE'),
  ('numpy.lib.shape_base',
   'C:\\Python36\\lib\\site-packages\\numpy\\lib\\shape_base.py',
   'PYMODULE'),
  ('numpy.lib.nanfunctions',
   'C:\\Python36\\lib\\site-packages\\numpy\\lib\\nanfunctions.py',
   'PYMODULE'),
  ('numpy.lib.mixins',
   'C:\\Python36\\lib\\site-packages\\numpy\\lib\\mixins.py',
   'PYMODULE'),
  ('numpy.lib.type_check',
   'C:\\Python36\\lib\\site-packages\\numpy\\lib\\type_check.py',
   'PYMODULE'),
  ('numpy.core.getlimits',
   'C:\\Python36\\lib\\site-packages\\numpy\\core\\getlimits.py',
   'PYMODULE'),
  ('numpy.core.machar',
   'C:\\Python36\\lib\\site-packages\\numpy\\core\\machar.py',
   'PYMODULE'),
  ('numpy.lib.info',
   'C:\\Python36\\lib\\site-packages\\numpy\\lib\\info.py',
   'PYMODULE'),
  ('numpy.compat',
   'C:\\Python36\\lib\\site-packages\\numpy\\compat\\__init__.py',
   'PYMODULE'),
  ('numpy.compat._inspect',
   'C:\\Python36\\lib\\site-packages\\numpy\\compat\\_inspect.py',
   'PYMODULE'),
  ('numpy.core',
   'C:\\Python36\\lib\\site-packages\\numpy\\core\\__init__.py',
   'PYMODULE'),
  ('numpy.core.einsumfunc',
   'C:\\Python36\\lib\\site-packages\\numpy\\core\\einsumfunc.py',
   'PYMODULE'),
  ('numpy.core.shape_base',
   'C:\\Python36\\lib\\site-packages\\numpy\\core\\shape_base.py',
   'PYMODULE'),
  ('numpy.core.function_base',
   'C:\\Python36\\lib\\site-packages\\numpy\\core\\function_base.py',
   'PYMODULE'),
  ('numpy.core.memmap',
   'C:\\Python36\\lib\\site-packages\\numpy\\core\\memmap.py',
   'PYMODULE'),
  ('numpy.core.defchararray',
   'C:\\Python36\\lib\\site-packages\\numpy\\core\\defchararray.py',
   'PYMODULE'),
  ('numpy.core.info',
   'C:\\Python36\\lib\\site-packages\\numpy\\core\\info.py',
   'PYMODULE'),
  ('numpy._distributor_init',
   'C:\\Python36\\lib\\site-packages\\numpy\\_distributor_init.py',
   'PYMODULE'),
  ('numpy.testing',
   'C:\\Python36\\lib\\site-packages\\numpy\\testing\\__init__.py',
   'PYMODULE'),
  ('numpy.testing.decorators',
   'C:\\Python36\\lib\\site-packages\\numpy\\testing\\decorators.py',
   'PYMODULE'),
  ('numpy.add_newdocs',
   'C:\\Python36\\lib\\site-packages\\numpy\\add_newdocs.py',
   'PYMODULE'),
  ('numpy._import_tools',
   'C:\\Python36\\lib\\site-packages\\numpy\\_import_tools.py',
   'PYMODULE'),
  ('numpy.version',
   'C:\\Python36\\lib\\site-packages\\numpy\\version.py',
   'PYMODULE'),
  ('numpy.__config__',
   'C:\\Python36\\lib\\site-packages\\numpy\\__config__.py',
   'PYMODULE'),
  ('numpy._globals',
   'C:\\Python36\\lib\\site-packages\\numpy\\_globals.py',
   'PYMODULE'),
  ('pygame.sndarray',
   'C:\\Python36\\lib\\site-packages\\pygame\\sndarray.py',
   'PYMODULE'),
  ('pygame._numpysndarray',
   'C:\\Python36\\lib\\site-packages\\pygame\\_numpysndarray.py',
   'PYMODULE'),
  ('pygame.surfarray',
   'C:\\Python36\\lib\\site-packages\\pygame\\surfarray.py',
   'PYMODULE'),
  ('pygame._numpysurfarray',
   'C:\\Python36\\lib\\site-packages\\pygame\\_numpysurfarray.py',
   'PYMODULE'),
  ('pygame.sysfont',
   'C:\\Python36\\lib\\site-packages\\pygame\\sysfont.py',
   'PYMODULE'),
  ('pygame.ftfont',
   'C:\\Python36\\lib\\site-packages\\pygame\\ftfont.py',
   'PYMODULE'),
  ('pygame.threads',
   'C:\\Python36\\lib\\site-packages\\pygame\\threads\\__init__.py',
   'PYMODULE'),
  ('pygame.sprite',
   'C:\\Python36\\lib\\site-packages\\pygame\\sprite.py',
   'PYMODULE'),
  ('pygame.cursors',
   'C:\\Python36\\lib\\site-packages\\pygame\\cursors.py',
   'PYMODULE'),
  ('pygame.compat',
   'C:\\Python36\\lib\\site-packages\\pygame\\compat.py',
   'PYMODULE'),
  ('pygame.version',
   'C:\\Python36\\lib\\site-packages\\pygame\\version.py',
   'PYMODULE'),
  ('os', 'C:\\Python36\\lib\\os.py', 'PYMODULE'),
  ('tkinter', 'C:\\Python36\\lib\\tkinter\\__init__.py', 'PYMODULE'),
  ('tkinter.constants',
   'C:\\Python36\\lib\\tkinter\\constants.py',
   'PYMODULE')])
